%YAML 1.1
%TAG !u! tag:unity3d.com,2011:
--- !u!29 &1
OcclusionCullingSettings:
  m_ObjectHideFlags: 0
  serializedVersion: 2
  m_OcclusionBakeSettings:
    smallestOccluder: 5
    smallestHole: 0.25
    backfaceThreshold: 100
  m_SceneGUID: 00000000000000000000000000000000
  m_OcclusionCullingData: {fileID: 0}
--- !u!104 &2
RenderSettings:
  m_ObjectHideFlags: 0
  serializedVersion: 9
  m_Fog: 0
  m_FogColor: {r: 0.5, g: 0.5, b: 0.5, a: 1}
  m_FogMode: 3
  m_FogDensity: 0.01
  m_LinearFogStart: 0
  m_LinearFogEnd: 300
  m_AmbientSkyColor: {r: 0.212, g: 0.227, b: 0.259, a: 1}
  m_AmbientEquatorColor: {r: 0.114, g: 0.125, b: 0.133, a: 1}
  m_AmbientGroundColor: {r: 0.047, g: 0.043, b: 0.035, a: 1}
  m_AmbientIntensity: 1
  m_AmbientMode: 0
  m_SubtractiveShadowColor: {r: 0.42, g: 0.478, b: 0.627, a: 1}
  m_SkyboxMaterial: {fileID: 10304, guid: 0000000000000000f000000000000000, type: 0}
  m_HaloStrength: 0.5
  m_FlareStrength: 1
  m_FlareFadeSpeed: 3
  m_HaloTexture: {fileID: 0}
  m_SpotCookie: {fileID: 10001, guid: 0000000000000000e000000000000000, type: 0}
  m_DefaultReflectionMode: 0
  m_DefaultReflectionResolution: 128
  m_ReflectionBounces: 1
  m_ReflectionIntensity: 1
  m_CustomReflection: {fileID: 0}
  m_Sun: {fileID: 705507994}
  m_IndirectSpecularColor: {r: 0.18028378, g: 0.22571412, b: 0.30692285, a: 1}
  m_UseRadianceAmbientProbe: 0
--- !u!157 &3
LightmapSettings:
  m_ObjectHideFlags: 0
  serializedVersion: 12
  m_GIWorkflowMode: 1
  m_GISettings:
    serializedVersion: 2
    m_BounceScale: 1
    m_IndirectOutputScale: 1
    m_AlbedoBoost: 1
    m_EnvironmentLightingMode: 0
    m_EnableBakedLightmaps: 1
    m_EnableRealtimeLightmaps: 0
  m_LightmapEditorSettings:
    serializedVersion: 12
    m_Resolution: 2
    m_BakeResolution: 40
    m_AtlasSize: 1024
    m_AO: 0
    m_AOMaxDistance: 1
    m_CompAOExponent: 1
    m_CompAOExponentDirect: 0
    m_ExtractAmbientOcclusion: 0
    m_Padding: 2
    m_LightmapParameters: {fileID: 0}
    m_LightmapsBakeMode: 1
    m_TextureCompression: 1
    m_FinalGather: 0
    m_FinalGatherFiltering: 1
    m_FinalGatherRayCount: 256
    m_ReflectionCompression: 2
    m_MixedBakeMode: 2
    m_BakeBackend: 1
    m_PVRSampling: 1
    m_PVRDirectSampleCount: 32
    m_PVRSampleCount: 500
    m_PVRBounces: 2
    m_PVREnvironmentSampleCount: 500
    m_PVREnvironmentReferencePointCount: 2048
    m_PVRFilteringMode: 2
    m_PVRDenoiserTypeDirect: 0
    m_PVRDenoiserTypeIndirect: 0
    m_PVRDenoiserTypeAO: 0
    m_PVRFilterTypeDirect: 0
    m_PVRFilterTypeIndirect: 0
    m_PVRFilterTypeAO: 0
    m_PVREnvironmentMIS: 0
    m_PVRCulling: 1
    m_PVRFilteringGaussRadiusDirect: 1
    m_PVRFilteringGaussRadiusIndirect: 5
    m_PVRFilteringGaussRadiusAO: 2
    m_PVRFilteringAtrousPositionSigmaDirect: 0.5
    m_PVRFilteringAtrousPositionSigmaIndirect: 2
    m_PVRFilteringAtrousPositionSigmaAO: 1
    m_ExportTrainingData: 0
    m_TrainingDataDestination: TrainingData
    m_LightProbeSampleCountMultiplier: 4
  m_LightingDataAsset: {fileID: 0}
  m_LightingSettings: {fileID: 0}
--- !u!196 &4
NavMeshSettings:
  serializedVersion: 2
  m_ObjectHideFlags: 0
  m_BuildSettings:
    serializedVersion: 2
    agentTypeID: 0
    agentRadius: 0.5
    agentHeight: 2
    agentSlope: 45
    agentClimb: 0.4
    ledgeDropHeight: 0
    maxJumpAcrossDistance: 0
    minRegionArea: 2
    manualCellSize: 0
    cellSize: 0.16666667
    manualTileSize: 0
    tileSize: 256
    accuratePlacement: 0
    maxJobWorkers: 0
    preserveTilesOutsideBounds: 0
    debug:
      m_Flags: 0
  m_NavMeshData: {fileID: 0}
--- !u!1001 &208116476
PrefabInstance:
  m_ObjectHideFlags: 0
  serializedVersion: 2
  m_Modification:
    m_TransformParent: {fileID: 0}
    m_Modifications:
    - target: {fileID: 2082148069247382453, guid: 8bfb4497dda968b469f9c0c4a22374d1, type: 3}
      propertyPath: Spatialize
      value: 1
      objectReference: {fileID: 0}
    - target: {fileID: 2082148069247382453, guid: 8bfb4497dda968b469f9c0c4a22374d1, type: 3}
      propertyPath: OutputAudioMixerGroup
      value: 
      objectReference: {fileID: 3526612193736648505, guid: c4ec596b04ef53f4581688939092e813, type: 2}
    - target: {fileID: 2082148069247382453, guid: 8bfb4497dda968b469f9c0c4a22374d1, type: 3}
      propertyPath: panLevelCustomCurve.m_Curve.Array.data[0].value
      value: 1
      objectReference: {fileID: 0}
    - target: {fileID: 3045578032311879198, guid: 8bfb4497dda968b469f9c0c4a22374d1, type: 3}
      propertyPath: Spatialize
      value: 1
      objectReference: {fileID: 0}
    - target: {fileID: 3045578032311879198, guid: 8bfb4497dda968b469f9c0c4a22374d1, type: 3}
      propertyPath: OutputAudioMixerGroup
      value: 
      objectReference: {fileID: 3526612193736648505, guid: c4ec596b04ef53f4581688939092e813, type: 2}
    - target: {fileID: 3045578032311879198, guid: 8bfb4497dda968b469f9c0c4a22374d1, type: 3}
      propertyPath: panLevelCustomCurve.m_Curve.Array.data[0].value
      value: 1
      objectReference: {fileID: 0}
    - target: {fileID: 6134130586559970896, guid: 8bfb4497dda968b469f9c0c4a22374d1, type: 3}
      propertyPath: Spatialize
      value: 1
      objectReference: {fileID: 0}
    - target: {fileID: 6134130586559970896, guid: 8bfb4497dda968b469f9c0c4a22374d1, type: 3}
      propertyPath: OutputAudioMixerGroup
      value: 
      objectReference: {fileID: 3526612193736648505, guid: c4ec596b04ef53f4581688939092e813, type: 2}
    - target: {fileID: 6134130586559970896, guid: 8bfb4497dda968b469f9c0c4a22374d1, type: 3}
      propertyPath: panLevelCustomCurve.m_Curve.Array.data[0].value
      value: 1
      objectReference: {fileID: 0}
    - target: {fileID: 7326570055845349072, guid: 8bfb4497dda968b469f9c0c4a22374d1, type: 3}
      propertyPath: Spatialize
      value: 1
      objectReference: {fileID: 0}
    - target: {fileID: 7326570055845349072, guid: 8bfb4497dda968b469f9c0c4a22374d1, type: 3}
      propertyPath: OutputAudioMixerGroup
      value: 
      objectReference: {fileID: 3526612193736648505, guid: c4ec596b04ef53f4581688939092e813, type: 2}
    - target: {fileID: 7326570055845349072, guid: 8bfb4497dda968b469f9c0c4a22374d1, type: 3}
      propertyPath: panLevelCustomCurve.m_Curve.Array.data[0].value
      value: 1
      objectReference: {fileID: 0}
    - target: {fileID: 7372669237086358564, guid: 8bfb4497dda968b469f9c0c4a22374d1, type: 3}
      propertyPath: m_Name
      value: SampleSceneHandMenu
      objectReference: {fileID: 0}
    - target: {fileID: 7372669237086358568, guid: 8bfb4497dda968b469f9c0c4a22374d1, type: 3}
      propertyPath: m_RootOrder
      value: 6
      objectReference: {fileID: 0}
    - target: {fileID: 7372669237086358568, guid: 8bfb4497dda968b469f9c0c4a22374d1, type: 3}
      propertyPath: m_LocalPosition.x
      value: 0
      objectReference: {fileID: 0}
    - target: {fileID: 7372669237086358568, guid: 8bfb4497dda968b469f9c0c4a22374d1, type: 3}
      propertyPath: m_LocalPosition.y
      value: 0
      objectReference: {fileID: 0}
    - target: {fileID: 7372669237086358568, guid: 8bfb4497dda968b469f9c0c4a22374d1, type: 3}
      propertyPath: m_LocalPosition.z
      value: 0
      objectReference: {fileID: 0}
    - target: {fileID: 7372669237086358568, guid: 8bfb4497dda968b469f9c0c4a22374d1, type: 3}
      propertyPath: m_LocalRotation.w
      value: 1
      objectReference: {fileID: 0}
    - target: {fileID: 7372669237086358568, guid: 8bfb4497dda968b469f9c0c4a22374d1, type: 3}
      propertyPath: m_LocalRotation.x
      value: 0
      objectReference: {fileID: 0}
    - target: {fileID: 7372669237086358568, guid: 8bfb4497dda968b469f9c0c4a22374d1, type: 3}
      propertyPath: m_LocalRotation.y
      value: 0
      objectReference: {fileID: 0}
    - target: {fileID: 7372669237086358568, guid: 8bfb4497dda968b469f9c0c4a22374d1, type: 3}
      propertyPath: m_LocalRotation.z
      value: 0
      objectReference: {fileID: 0}
    - target: {fileID: 7372669237086358568, guid: 8bfb4497dda968b469f9c0c4a22374d1, type: 3}
      propertyPath: m_LocalEulerAnglesHint.x
      value: 0
      objectReference: {fileID: 0}
    - target: {fileID: 7372669237086358568, guid: 8bfb4497dda968b469f9c0c4a22374d1, type: 3}
      propertyPath: m_LocalEulerAnglesHint.y
      value: 0
      objectReference: {fileID: 0}
    - target: {fileID: 7372669237086358568, guid: 8bfb4497dda968b469f9c0c4a22374d1, type: 3}
      propertyPath: m_LocalEulerAnglesHint.z
      value: 0
      objectReference: {fileID: 0}
    - target: {fileID: 7618871619398064040, guid: 8bfb4497dda968b469f9c0c4a22374d1, type: 3}
      propertyPath: Spatialize
      value: 1
      objectReference: {fileID: 0}
    - target: {fileID: 7618871619398064040, guid: 8bfb4497dda968b469f9c0c4a22374d1, type: 3}
      propertyPath: OutputAudioMixerGroup
      value: 
      objectReference: {fileID: 3526612193736648505, guid: c4ec596b04ef53f4581688939092e813, type: 2}
    - target: {fileID: 7618871619398064040, guid: 8bfb4497dda968b469f9c0c4a22374d1, type: 3}
      propertyPath: panLevelCustomCurve.m_Curve.Array.data[0].value
      value: 1
      objectReference: {fileID: 0}
    m_RemovedComponents: []
  m_SourcePrefab: {fileID: 100100000, guid: 8bfb4497dda968b469f9c0c4a22374d1, type: 3}
--- !u!1001 &525252187
PrefabInstance:
  m_ObjectHideFlags: 0
  serializedVersion: 2
  m_Modification:
    m_TransformParent: {fileID: 0}
    m_Modifications:
    - target: {fileID: 2351505567455720332, guid: 4d7e2f87fefe0ba468719b15288b46e7, type: 3}
      propertyPath: m_RootOrder
      value: 2
      objectReference: {fileID: 0}
    - target: {fileID: 2351505567455720332, guid: 4d7e2f87fefe0ba468719b15288b46e7, type: 3}
      propertyPath: m_LocalPosition.x
      value: 0
      objectReference: {fileID: 0}
    - target: {fileID: 2351505567455720332, guid: 4d7e2f87fefe0ba468719b15288b46e7, type: 3}
      propertyPath: m_LocalPosition.y
      value: 0
      objectReference: {fileID: 0}
    - target: {fileID: 2351505567455720332, guid: 4d7e2f87fefe0ba468719b15288b46e7, type: 3}
      propertyPath: m_LocalPosition.z
      value: 0
      objectReference: {fileID: 0}
    - target: {fileID: 2351505567455720332, guid: 4d7e2f87fefe0ba468719b15288b46e7, type: 3}
      propertyPath: m_LocalRotation.w
      value: 1
      objectReference: {fileID: 0}
    - target: {fileID: 2351505567455720332, guid: 4d7e2f87fefe0ba468719b15288b46e7, type: 3}
      propertyPath: m_LocalRotation.x
      value: 0
      objectReference: {fileID: 0}
    - target: {fileID: 2351505567455720332, guid: 4d7e2f87fefe0ba468719b15288b46e7, type: 3}
      propertyPath: m_LocalRotation.y
      value: 0
      objectReference: {fileID: 0}
    - target: {fileID: 2351505567455720332, guid: 4d7e2f87fefe0ba468719b15288b46e7, type: 3}
      propertyPath: m_LocalRotation.z
      value: 0
      objectReference: {fileID: 0}
    - target: {fileID: 2351505567455720332, guid: 4d7e2f87fefe0ba468719b15288b46e7, type: 3}
      propertyPath: m_LocalEulerAnglesHint.x
      value: 0
      objectReference: {fileID: 0}
    - target: {fileID: 2351505567455720332, guid: 4d7e2f87fefe0ba468719b15288b46e7, type: 3}
      propertyPath: m_LocalEulerAnglesHint.y
      value: 0
      objectReference: {fileID: 0}
    - target: {fileID: 2351505567455720332, guid: 4d7e2f87fefe0ba468719b15288b46e7, type: 3}
      propertyPath: m_LocalEulerAnglesHint.z
      value: 0
      objectReference: {fileID: 0}
    - target: {fileID: 2351505567455720334, guid: 4d7e2f87fefe0ba468719b15288b46e7, type: 3}
      propertyPath: m_Name
      value: MRTK XR Rig
      objectReference: {fileID: 0}
    - target: {fileID: 8479077998186684813, guid: 4d7e2f87fefe0ba468719b15288b46e7, type: 3}
      propertyPath: m_IsActive
      value: 1
      objectReference: {fileID: 0}
    m_RemovedComponents: []
  m_SourcePrefab: {fileID: 100100000, guid: 4d7e2f87fefe0ba468719b15288b46e7, type: 3}
--- !u!1 &705507993
GameObject:
  m_ObjectHideFlags: 0
  m_CorrespondingSourceObject: {fileID: 0}
  m_PrefabInstance: {fileID: 0}
  m_PrefabAsset: {fileID: 0}
  serializedVersion: 6
  m_Component:
  - component: {fileID: 705507995}
  - component: {fileID: 705507994}
  m_Layer: 0
  m_Name: Directional Light
  m_TagString: Untagged
  m_Icon: {fileID: 0}
  m_NavMeshLayer: 0
  m_StaticEditorFlags: 0
  m_IsActive: 1
--- !u!108 &705507994
Light:
  m_ObjectHideFlags: 0
  m_CorrespondingSourceObject: {fileID: 0}
  m_PrefabInstance: {fileID: 0}
  m_PrefabAsset: {fileID: 0}
  m_GameObject: {fileID: 705507993}
  m_Enabled: 1
  serializedVersion: 10
  m_Type: 1
  m_Shape: 0
  m_Color: {r: 1, g: 0.95686275, b: 0.8392157, a: 1}
  m_Intensity: 1
  m_Range: 10
  m_SpotAngle: 30
  m_InnerSpotAngle: 21.80208
  m_CookieSize: 10
  m_Shadows:
    m_Type: 2
    m_Resolution: -1
    m_CustomResolution: -1
    m_Strength: 1
    m_Bias: 0.05
    m_NormalBias: 0.4
    m_NearPlane: 0.2
    m_CullingMatrixOverride:
      e00: 1
      e01: 0
      e02: 0
      e03: 0
      e10: 0
      e11: 1
      e12: 0
      e13: 0
      e20: 0
      e21: 0
      e22: 1
      e23: 0
      e30: 0
      e31: 0
      e32: 0
      e33: 1
    m_UseCullingMatrixOverride: 0
  m_Cookie: {fileID: 0}
  m_DrawHalo: 0
  m_Flare: {fileID: 0}
  m_RenderMode: 0
  m_CullingMask:
    serializedVersion: 2
    m_Bits: 4294967295
  m_RenderingLayerMask: 1
  m_Lightmapping: 1
  m_LightShadowCasterMode: 0
  m_AreaSize: {x: 1, y: 1}
  m_BounceIntensity: 1
  m_ColorTemperature: 6570
  m_UseColorTemperature: 0
  m_BoundingSphereOverride: {x: 0, y: 0, z: 0, w: 0}
  m_UseBoundingSphereOverride: 0
  m_UseViewFrustumForShadowCasterCull: 1
  m_ShadowRadius: 0
  m_ShadowAngle: 0
--- !u!4 &705507995
Transform:
  m_ObjectHideFlags: 0
  m_CorrespondingSourceObject: {fileID: 0}
  m_PrefabInstance: {fileID: 0}
  m_PrefabAsset: {fileID: 0}
  m_GameObject: {fileID: 705507993}
  m_LocalRotation: {x: 0.40821788, y: -0.23456968, z: 0.10938163, w: 0.8754261}
  m_LocalPosition: {x: 0, y: 3, z: 0}
  m_LocalScale: {x: 1, y: 1, z: 1}
  m_ConstrainProportionsScale: 0
  m_Children: []
  m_Father: {fileID: 0}
  m_RootOrder: 0
  m_LocalEulerAnglesHint: {x: 50, y: -30, z: 0}
--- !u!1001 &1209299743
PrefabInstance:
  m_ObjectHideFlags: 0
  serializedVersion: 2
  m_Modification:
    m_TransformParent: {fileID: 0}
    m_Modifications:
    - target: {fileID: 5905304275062509466, guid: df4899a7e84d2794a9428337bba8a253, type: 3}
      propertyPath: m_RootOrder
      value: 3
      objectReference: {fileID: 0}
    - target: {fileID: 5905304275062509466, guid: df4899a7e84d2794a9428337bba8a253, type: 3}
      propertyPath: m_LocalEulerAnglesHint.x
      value: 0
      objectReference: {fileID: 0}
    - target: {fileID: 5905304275062509466, guid: df4899a7e84d2794a9428337bba8a253, type: 3}
      propertyPath: m_LocalEulerAnglesHint.y
      value: 0
      objectReference: {fileID: 0}
    - target: {fileID: 5905304275062509466, guid: df4899a7e84d2794a9428337bba8a253, type: 3}
      propertyPath: m_LocalEulerAnglesHint.z
      value: 0
      objectReference: {fileID: 0}
    - target: {fileID: 5905304275062509471, guid: df4899a7e84d2794a9428337bba8a253, type: 3}
      propertyPath: m_Name
      value: EventSystem
      objectReference: {fileID: 0}
    m_RemovedComponents: []
  m_SourcePrefab: {fileID: 100100000, guid: df4899a7e84d2794a9428337bba8a253, type: 3}
--- !u!1001 &1789277895
PrefabInstance:
  m_ObjectHideFlags: 0
  serializedVersion: 2
  m_Modification:
    m_TransformParent: {fileID: 0}
    m_Modifications:
    - target: {fileID: 3493013819197874656, guid: ad5b753b73e311143a85055b15cea562, type: 3}
      propertyPath: m_RootOrder
      value: 1
      objectReference: {fileID: 0}
    - target: {fileID: 3493013819197874656, guid: ad5b753b73e311143a85055b15cea562, type: 3}
      propertyPath: m_LocalPosition.x
      value: 0
      objectReference: {fileID: 0}
    - target: {fileID: 3493013819197874656, guid: ad5b753b73e311143a85055b15cea562, type: 3}
      propertyPath: m_LocalPosition.y
      value: 0
      objectReference: {fileID: 0}
    - target: {fileID: 3493013819197874656, guid: ad5b753b73e311143a85055b15cea562, type: 3}
      propertyPath: m_LocalPosition.z
      value: 0
      objectReference: {fileID: 0}
    - target: {fileID: 3493013819197874656, guid: ad5b753b73e311143a85055b15cea562, type: 3}
      propertyPath: m_LocalRotation.w
      value: 1
      objectReference: {fileID: 0}
    - target: {fileID: 3493013819197874656, guid: ad5b753b73e311143a85055b15cea562, type: 3}
      propertyPath: m_LocalRotation.x
      value: 0
      objectReference: {fileID: 0}
    - target: {fileID: 3493013819197874656, guid: ad5b753b73e311143a85055b15cea562, type: 3}
      propertyPath: m_LocalRotation.y
      value: 0
      objectReference: {fileID: 0}
    - target: {fileID: 3493013819197874656, guid: ad5b753b73e311143a85055b15cea562, type: 3}
      propertyPath: m_LocalRotation.z
      value: 0
      objectReference: {fileID: 0}
    - target: {fileID: 3493013819197874656, guid: ad5b753b73e311143a85055b15cea562, type: 3}
      propertyPath: m_LocalEulerAnglesHint.x
      value: 0
      objectReference: {fileID: 0}
    - target: {fileID: 3493013819197874656, guid: ad5b753b73e311143a85055b15cea562, type: 3}
      propertyPath: m_LocalEulerAnglesHint.y
      value: 0
      objectReference: {fileID: 0}
    - target: {fileID: 3493013819197874656, guid: ad5b753b73e311143a85055b15cea562, type: 3}
      propertyPath: m_LocalEulerAnglesHint.z
      value: 0
      objectReference: {fileID: 0}
    - target: {fileID: 7585035320575375756, guid: ad5b753b73e311143a85055b15cea562, type: 3}
      propertyPath: m_Name
      value: MRTKInputSimulator
      objectReference: {fileID: 0}
    - target: {fileID: 7585035320575375756, guid: ad5b753b73e311143a85055b15cea562, type: 3}
      propertyPath: m_IsActive
      value: 1
      objectReference: {fileID: 0}
    m_RemovedComponents: []
  m_SourcePrefab: {fileID: 100100000, guid: ad5b753b73e311143a85055b15cea562, type: 3}
--- !u!1001 &1824793667
PrefabInstance:
  m_ObjectHideFlags: 0
  serializedVersion: 2
  m_Modification:
    m_TransformParent: {fileID: 0}
    m_Modifications:
    - target: {fileID: 443995632, guid: a31291e7cd07cc34f9b29ec2a6ab7224, type: 3}
      propertyPath: m_Size.z
      value: 0.029271265
      objectReference: {fileID: 0}
    - target: {fileID: 443995632, guid: a31291e7cd07cc34f9b29ec2a6ab7224, type: 3}
      propertyPath: m_Center.z
      value: 0.010364364
      objectReference: {fileID: 0}
    - target: {fileID: 9437446510852594, guid: a31291e7cd07cc34f9b29ec2a6ab7224, type: 3}
      propertyPath: m_Size.y
      value: 32
      objectReference: {fileID: 0}
    - target: {fileID: 9437446510852598, guid: a31291e7cd07cc34f9b29ec2a6ab7224, type: 3}
      propertyPath: Spatialize
      value: 1
      objectReference: {fileID: 0}
    - target: {fileID: 9437446510852598, guid: a31291e7cd07cc34f9b29ec2a6ab7224, type: 3}
      propertyPath: OutputAudioMixerGroup
      value: 
      objectReference: {fileID: 3526612193736648505, guid: c4ec596b04ef53f4581688939092e813, type: 2}
    - target: {fileID: 9437446510852598, guid: a31291e7cd07cc34f9b29ec2a6ab7224, type: 3}
      propertyPath: panLevelCustomCurve.m_Curve.Array.data[0].value
      value: 1
      objectReference: {fileID: 0}
    - target: {fileID: 9437446510852599, guid: a31291e7cd07cc34f9b29ec2a6ab7224, type: 3}
      propertyPath: m_AnchorMax.y
      value: 0
      objectReference: {fileID: 0}
    - target: {fileID: 9437446510852599, guid: a31291e7cd07cc34f9b29ec2a6ab7224, type: 3}
      propertyPath: m_AnchorMin.y
      value: 0
      objectReference: {fileID: 0}
    - target: {fileID: 9437446510852599, guid: a31291e7cd07cc34f9b29ec2a6ab7224, type: 3}
      propertyPath: m_SizeDelta.y
      value: 0
      objectReference: {fileID: 0}
    - target: {fileID: 9437446510852599, guid: a31291e7cd07cc34f9b29ec2a6ab7224, type: 3}
      propertyPath: m_AnchoredPosition.x
      value: 0
      objectReference: {fileID: 0}
    - target: {fileID: 9437446510852599, guid: a31291e7cd07cc34f9b29ec2a6ab7224, type: 3}
      propertyPath: m_AnchoredPosition.y
      value: 0
      objectReference: {fileID: 0}
    - target: {fileID: 284030044009447867, guid: a31291e7cd07cc34f9b29ec2a6ab7224, type: 3}
      propertyPath: Spatialize
      value: 1
      objectReference: {fileID: 0}
    - target: {fileID: 284030044009447867, guid: a31291e7cd07cc34f9b29ec2a6ab7224, type: 3}
      propertyPath: OutputAudioMixerGroup
      value: 
      objectReference: {fileID: 3526612193736648505, guid: c4ec596b04ef53f4581688939092e813, type: 2}
    - target: {fileID: 284030044009447867, guid: a31291e7cd07cc34f9b29ec2a6ab7224, type: 3}
      propertyPath: panLevelCustomCurve.m_Curve.Array.data[0].value
      value: 1
      objectReference: {fileID: 0}
    - target: {fileID: 724323403903675551, guid: a31291e7cd07cc34f9b29ec2a6ab7224, type: 3}
      propertyPath: m_AnchorMax.y
      value: 0
      objectReference: {fileID: 0}
    - target: {fileID: 724323403903675551, guid: a31291e7cd07cc34f9b29ec2a6ab7224, type: 3}
      propertyPath: m_AnchorMin.y
      value: 0
      objectReference: {fileID: 0}
    - target: {fileID: 724323403903675551, guid: a31291e7cd07cc34f9b29ec2a6ab7224, type: 3}
      propertyPath: m_SizeDelta.y
      value: 0
      objectReference: {fileID: 0}
    - target: {fileID: 724323403903675551, guid: a31291e7cd07cc34f9b29ec2a6ab7224, type: 3}
      propertyPath: m_AnchoredPosition.x
      value: 0
      objectReference: {fileID: 0}
    - target: {fileID: 724323403903675551, guid: a31291e7cd07cc34f9b29ec2a6ab7224, type: 3}
      propertyPath: m_AnchoredPosition.y
      value: 0
      objectReference: {fileID: 0}
    - target: {fileID: 986953982429952368, guid: a31291e7cd07cc34f9b29ec2a6ab7224, type: 3}
      propertyPath: m_Name
      value: WhiteboardExample
      objectReference: {fileID: 0}
    - target: {fileID: 1169231408273737741, guid: a31291e7cd07cc34f9b29ec2a6ab7224, type: 3}
      propertyPath: m_AnchorMax.y
      value: 0
      objectReference: {fileID: 0}
    - target: {fileID: 1169231408273737741, guid: a31291e7cd07cc34f9b29ec2a6ab7224, type: 3}
      propertyPath: m_AnchorMin.y
      value: 0
      objectReference: {fileID: 0}
    - target: {fileID: 1169231408273737741, guid: a31291e7cd07cc34f9b29ec2a6ab7224, type: 3}
      propertyPath: m_SizeDelta.x
      value: 0
      objectReference: {fileID: 0}
    - target: {fileID: 1169231408273737741, guid: a31291e7cd07cc34f9b29ec2a6ab7224, type: 3}
      propertyPath: m_SizeDelta.y
      value: 0
      objectReference: {fileID: 0}
    - target: {fileID: 1169231408273737741, guid: a31291e7cd07cc34f9b29ec2a6ab7224, type: 3}
      propertyPath: m_AnchoredPosition.x
      value: 0
      objectReference: {fileID: 0}
    - target: {fileID: 1169231408273737741, guid: a31291e7cd07cc34f9b29ec2a6ab7224, type: 3}
      propertyPath: m_AnchoredPosition.y
      value: 0
      objectReference: {fileID: 0}
    - target: {fileID: 1510911413115419833, guid: a31291e7cd07cc34f9b29ec2a6ab7224, type: 3}
      propertyPath: Spatialize
      value: 1
      objectReference: {fileID: 0}
    - target: {fileID: 1510911413115419833, guid: a31291e7cd07cc34f9b29ec2a6ab7224, type: 3}
      propertyPath: OutputAudioMixerGroup
      value: 
      objectReference: {fileID: 3526612193736648505, guid: c4ec596b04ef53f4581688939092e813, type: 2}
    - target: {fileID: 1510911413115419833, guid: a31291e7cd07cc34f9b29ec2a6ab7224, type: 3}
      propertyPath: panLevelCustomCurve.m_Curve.Array.data[0].value
      value: 1
      objectReference: {fileID: 0}
    - target: {fileID: 1574045221918205079, guid: a31291e7cd07cc34f9b29ec2a6ab7224, type: 3}
      propertyPath: Spatialize
      value: 1
      objectReference: {fileID: 0}
    - target: {fileID: 1574045221918205079, guid: a31291e7cd07cc34f9b29ec2a6ab7224, type: 3}
      propertyPath: OutputAudioMixerGroup
      value: 
      objectReference: {fileID: 3526612193736648505, guid: c4ec596b04ef53f4581688939092e813, type: 2}
    - target: {fileID: 1574045221918205079, guid: a31291e7cd07cc34f9b29ec2a6ab7224, type: 3}
      propertyPath: panLevelCustomCurve.m_Curve.Array.data[0].value
      value: 1
      objectReference: {fileID: 0}
    - target: {fileID: 1715477249078649596, guid: a31291e7cd07cc34f9b29ec2a6ab7224, type: 3}
      propertyPath: m_AnchorMax.y
      value: 0
      objectReference: {fileID: 0}
    - target: {fileID: 1715477249078649596, guid: a31291e7cd07cc34f9b29ec2a6ab7224, type: 3}
      propertyPath: m_AnchorMin.y
      value: 0
      objectReference: {fileID: 0}
    - target: {fileID: 1715477249078649596, guid: a31291e7cd07cc34f9b29ec2a6ab7224, type: 3}
      propertyPath: m_SizeDelta.x
      value: 0
      objectReference: {fileID: 0}
    - target: {fileID: 1715477249078649596, guid: a31291e7cd07cc34f9b29ec2a6ab7224, type: 3}
      propertyPath: m_SizeDelta.y
      value: 0
      objectReference: {fileID: 0}
    - target: {fileID: 1715477249078649596, guid: a31291e7cd07cc34f9b29ec2a6ab7224, type: 3}
      propertyPath: m_AnchoredPosition.x
      value: 0
      objectReference: {fileID: 0}
    - target: {fileID: 1715477249078649596, guid: a31291e7cd07cc34f9b29ec2a6ab7224, type: 3}
      propertyPath: m_AnchoredPosition.y
      value: 0
      objectReference: {fileID: 0}
    - target: {fileID: 2864857420249135790, guid: a31291e7cd07cc34f9b29ec2a6ab7224, type: 3}
      propertyPath: m_AnchorMax.y
      value: 0
      objectReference: {fileID: 0}
    - target: {fileID: 2864857420249135790, guid: a31291e7cd07cc34f9b29ec2a6ab7224, type: 3}
      propertyPath: m_AnchorMin.y
      value: 0
      objectReference: {fileID: 0}
    - target: {fileID: 2864857420249135790, guid: a31291e7cd07cc34f9b29ec2a6ab7224, type: 3}
      propertyPath: m_SizeDelta.x
      value: 0
      objectReference: {fileID: 0}
    - target: {fileID: 2864857420249135790, guid: a31291e7cd07cc34f9b29ec2a6ab7224, type: 3}
      propertyPath: m_SizeDelta.y
      value: 0
      objectReference: {fileID: 0}
    - target: {fileID: 2864857420249135790, guid: a31291e7cd07cc34f9b29ec2a6ab7224, type: 3}
      propertyPath: m_AnchoredPosition.x
      value: 0
      objectReference: {fileID: 0}
    - target: {fileID: 2864857420249135790, guid: a31291e7cd07cc34f9b29ec2a6ab7224, type: 3}
      propertyPath: m_AnchoredPosition.y
      value: 0
      objectReference: {fileID: 0}
    - target: {fileID: 4024654762168814417, guid: a31291e7cd07cc34f9b29ec2a6ab7224, type: 3}
      propertyPath: m_Size.y
      value: 32
      objectReference: {fileID: 0}
    - target: {fileID: 4024654762168814420, guid: a31291e7cd07cc34f9b29ec2a6ab7224, type: 3}
      propertyPath: m_AnchorMax.y
      value: 0
      objectReference: {fileID: 0}
    - target: {fileID: 4024654762168814420, guid: a31291e7cd07cc34f9b29ec2a6ab7224, type: 3}
      propertyPath: m_AnchorMin.y
      value: 0
      objectReference: {fileID: 0}
    - target: {fileID: 4024654762168814420, guid: a31291e7cd07cc34f9b29ec2a6ab7224, type: 3}
      propertyPath: m_SizeDelta.y
      value: 0
      objectReference: {fileID: 0}
    - target: {fileID: 4024654762168814420, guid: a31291e7cd07cc34f9b29ec2a6ab7224, type: 3}
      propertyPath: m_AnchoredPosition.x
      value: 0
      objectReference: {fileID: 0}
    - target: {fileID: 4024654762168814420, guid: a31291e7cd07cc34f9b29ec2a6ab7224, type: 3}
      propertyPath: m_AnchoredPosition.y
      value: 0
      objectReference: {fileID: 0}
    - target: {fileID: 4024654762168814421, guid: a31291e7cd07cc34f9b29ec2a6ab7224, type: 3}
      propertyPath: Spatialize
      value: 1
      objectReference: {fileID: 0}
    - target: {fileID: 4024654762168814421, guid: a31291e7cd07cc34f9b29ec2a6ab7224, type: 3}
      propertyPath: OutputAudioMixerGroup
      value: 
      objectReference: {fileID: 3526612193736648505, guid: c4ec596b04ef53f4581688939092e813, type: 2}
    - target: {fileID: 4024654762168814421, guid: a31291e7cd07cc34f9b29ec2a6ab7224, type: 3}
      propertyPath: panLevelCustomCurve.m_Curve.Array.data[0].value
      value: 1
      objectReference: {fileID: 0}
    - target: {fileID: 5037185138549003642, guid: a31291e7cd07cc34f9b29ec2a6ab7224, type: 3}
      propertyPath: m_AnchorMax.y
      value: 0
      objectReference: {fileID: 0}
    - target: {fileID: 5037185138549003642, guid: a31291e7cd07cc34f9b29ec2a6ab7224, type: 3}
      propertyPath: m_AnchorMin.y
      value: 0
      objectReference: {fileID: 0}
    - target: {fileID: 5037185138549003642, guid: a31291e7cd07cc34f9b29ec2a6ab7224, type: 3}
      propertyPath: m_SizeDelta.y
      value: 0
      objectReference: {fileID: 0}
    - target: {fileID: 5037185138549003642, guid: a31291e7cd07cc34f9b29ec2a6ab7224, type: 3}
      propertyPath: m_AnchoredPosition.x
      value: 0
      objectReference: {fileID: 0}
    - target: {fileID: 5037185138549003642, guid: a31291e7cd07cc34f9b29ec2a6ab7224, type: 3}
      propertyPath: m_AnchoredPosition.y
      value: 0
      objectReference: {fileID: 0}
    - target: {fileID: 5037185138549003643, guid: a31291e7cd07cc34f9b29ec2a6ab7224, type: 3}
      propertyPath: Spatialize
      value: 1
      objectReference: {fileID: 0}
    - target: {fileID: 5037185138549003643, guid: a31291e7cd07cc34f9b29ec2a6ab7224, type: 3}
      propertyPath: OutputAudioMixerGroup
      value: 
      objectReference: {fileID: 3526612193736648505, guid: c4ec596b04ef53f4581688939092e813, type: 2}
    - target: {fileID: 5037185138549003643, guid: a31291e7cd07cc34f9b29ec2a6ab7224, type: 3}
      propertyPath: panLevelCustomCurve.m_Curve.Array.data[0].value
      value: 1
      objectReference: {fileID: 0}
    - target: {fileID: 5037185138549003647, guid: a31291e7cd07cc34f9b29ec2a6ab7224, type: 3}
      propertyPath: m_Size.y
      value: 32
      objectReference: {fileID: 0}
    - target: {fileID: 5041229438117663422, guid: a31291e7cd07cc34f9b29ec2a6ab7224, type: 3}
      propertyPath: m_AnchorMax.y
      value: 0
      objectReference: {fileID: 0}
    - target: {fileID: 5041229438117663422, guid: a31291e7cd07cc34f9b29ec2a6ab7224, type: 3}
      propertyPath: m_AnchorMin.y
      value: 0
      objectReference: {fileID: 0}
    - target: {fileID: 5041229438117663422, guid: a31291e7cd07cc34f9b29ec2a6ab7224, type: 3}
      propertyPath: m_SizeDelta.x
      value: 0
      objectReference: {fileID: 0}
    - target: {fileID: 5041229438117663422, guid: a31291e7cd07cc34f9b29ec2a6ab7224, type: 3}
      propertyPath: m_SizeDelta.y
      value: 0
      objectReference: {fileID: 0}
    - target: {fileID: 5041229438117663422, guid: a31291e7cd07cc34f9b29ec2a6ab7224, type: 3}
      propertyPath: m_AnchoredPosition.x
      value: 0
      objectReference: {fileID: 0}
    - target: {fileID: 5041229438117663422, guid: a31291e7cd07cc34f9b29ec2a6ab7224, type: 3}
      propertyPath: m_AnchoredPosition.y
      value: 0
      objectReference: {fileID: 0}
    - target: {fileID: 5550144344218582306, guid: a31291e7cd07cc34f9b29ec2a6ab7224, type: 3}
      propertyPath: m_AnchorMax.y
      value: 0
      objectReference: {fileID: 0}
    - target: {fileID: 5550144344218582306, guid: a31291e7cd07cc34f9b29ec2a6ab7224, type: 3}
      propertyPath: m_AnchorMin.y
      value: 0
      objectReference: {fileID: 0}
    - target: {fileID: 5550144344218582306, guid: a31291e7cd07cc34f9b29ec2a6ab7224, type: 3}
      propertyPath: m_SizeDelta.x
      value: 0
      objectReference: {fileID: 0}
    - target: {fileID: 5550144344218582306, guid: a31291e7cd07cc34f9b29ec2a6ab7224, type: 3}
      propertyPath: m_SizeDelta.y
      value: 0
      objectReference: {fileID: 0}
    - target: {fileID: 5550144344218582306, guid: a31291e7cd07cc34f9b29ec2a6ab7224, type: 3}
      propertyPath: m_AnchoredPosition.x
      value: 0
      objectReference: {fileID: 0}
    - target: {fileID: 5550144344218582306, guid: a31291e7cd07cc34f9b29ec2a6ab7224, type: 3}
      propertyPath: m_AnchoredPosition.y
      value: 0
      objectReference: {fileID: 0}
    - target: {fileID: 6196913203719988352, guid: a31291e7cd07cc34f9b29ec2a6ab7224, type: 3}
      propertyPath: m_AnchorMax.y
      value: 0
      objectReference: {fileID: 0}
    - target: {fileID: 6196913203719988352, guid: a31291e7cd07cc34f9b29ec2a6ab7224, type: 3}
      propertyPath: m_AnchorMin.y
      value: 0
      objectReference: {fileID: 0}
    - target: {fileID: 6196913203719988352, guid: a31291e7cd07cc34f9b29ec2a6ab7224, type: 3}
      propertyPath: m_SizeDelta.x
      value: 0
      objectReference: {fileID: 0}
    - target: {fileID: 6196913203719988352, guid: a31291e7cd07cc34f9b29ec2a6ab7224, type: 3}
      propertyPath: m_SizeDelta.y
      value: 0
      objectReference: {fileID: 0}
    - target: {fileID: 6196913203719988352, guid: a31291e7cd07cc34f9b29ec2a6ab7224, type: 3}
      propertyPath: m_AnchoredPosition.x
      value: 0
      objectReference: {fileID: 0}
    - target: {fileID: 6196913203719988352, guid: a31291e7cd07cc34f9b29ec2a6ab7224, type: 3}
      propertyPath: m_AnchoredPosition.y
      value: 0
      objectReference: {fileID: 0}
    - target: {fileID: 6709910909478096088, guid: a31291e7cd07cc34f9b29ec2a6ab7224, type: 3}
      propertyPath: m_AnchorMax.y
      value: 0
      objectReference: {fileID: 0}
    - target: {fileID: 6709910909478096088, guid: a31291e7cd07cc34f9b29ec2a6ab7224, type: 3}
      propertyPath: m_AnchorMin.y
      value: 0
      objectReference: {fileID: 0}
    - target: {fileID: 6709910909478096088, guid: a31291e7cd07cc34f9b29ec2a6ab7224, type: 3}
      propertyPath: m_SizeDelta.y
      value: 0
      objectReference: {fileID: 0}
    - target: {fileID: 6709910909478096088, guid: a31291e7cd07cc34f9b29ec2a6ab7224, type: 3}
      propertyPath: m_AnchoredPosition.x
      value: 0
      objectReference: {fileID: 0}
    - target: {fileID: 6709910909478096088, guid: a31291e7cd07cc34f9b29ec2a6ab7224, type: 3}
      propertyPath: m_AnchoredPosition.y
      value: 0
      objectReference: {fileID: 0}
    - target: {fileID: 6709910909478096089, guid: a31291e7cd07cc34f9b29ec2a6ab7224, type: 3}
      propertyPath: Spatialize
      value: 1
      objectReference: {fileID: 0}
    - target: {fileID: 6709910909478096089, guid: a31291e7cd07cc34f9b29ec2a6ab7224, type: 3}
      propertyPath: OutputAudioMixerGroup
      value: 
      objectReference: {fileID: 3526612193736648505, guid: c4ec596b04ef53f4581688939092e813, type: 2}
    - target: {fileID: 6709910909478096089, guid: a31291e7cd07cc34f9b29ec2a6ab7224, type: 3}
      propertyPath: panLevelCustomCurve.m_Curve.Array.data[0].value
      value: 1
      objectReference: {fileID: 0}
    - target: {fileID: 6709910909478096093, guid: a31291e7cd07cc34f9b29ec2a6ab7224, type: 3}
      propertyPath: m_Size.y
      value: 32
      objectReference: {fileID: 0}
    - target: {fileID: 7319868907967457361, guid: a31291e7cd07cc34f9b29ec2a6ab7224, type: 3}
      propertyPath: Spatialize
      value: 1
      objectReference: {fileID: 0}
    - target: {fileID: 7319868907967457361, guid: a31291e7cd07cc34f9b29ec2a6ab7224, type: 3}
      propertyPath: OutputAudioMixerGroup
      value: 
      objectReference: {fileID: 3526612193736648505, guid: c4ec596b04ef53f4581688939092e813, type: 2}
    - target: {fileID: 7319868907967457361, guid: a31291e7cd07cc34f9b29ec2a6ab7224, type: 3}
      propertyPath: panLevelCustomCurve.m_Curve.Array.data[0].value
      value: 1
      objectReference: {fileID: 0}
    - target: {fileID: 8468582706564339464, guid: a31291e7cd07cc34f9b29ec2a6ab7224, type: 3}
      propertyPath: m_RootOrder
      value: 4
      objectReference: {fileID: 0}
    - target: {fileID: 8468582706564339464, guid: a31291e7cd07cc34f9b29ec2a6ab7224, type: 3}
      propertyPath: m_LocalPosition.x
      value: -0.027
      objectReference: {fileID: 0}
    - target: {fileID: 8468582706564339464, guid: a31291e7cd07cc34f9b29ec2a6ab7224, type: 3}
      propertyPath: m_LocalPosition.y
      value: 1.6
      objectReference: {fileID: 0}
    - target: {fileID: 8468582706564339464, guid: a31291e7cd07cc34f9b29ec2a6ab7224, type: 3}
      propertyPath: m_LocalPosition.z
      value: 0.638
      objectReference: {fileID: 0}
    - target: {fileID: 8468582706564339464, guid: a31291e7cd07cc34f9b29ec2a6ab7224, type: 3}
      propertyPath: m_LocalRotation.w
      value: 1
      objectReference: {fileID: 0}
    - target: {fileID: 8468582706564339464, guid: a31291e7cd07cc34f9b29ec2a6ab7224, type: 3}
      propertyPath: m_LocalRotation.x
      value: 0
      objectReference: {fileID: 0}
    - target: {fileID: 8468582706564339464, guid: a31291e7cd07cc34f9b29ec2a6ab7224, type: 3}
      propertyPath: m_LocalRotation.y
      value: 0
      objectReference: {fileID: 0}
    - target: {fileID: 8468582706564339464, guid: a31291e7cd07cc34f9b29ec2a6ab7224, type: 3}
      propertyPath: m_LocalRotation.z
      value: 0
      objectReference: {fileID: 0}
    - target: {fileID: 8468582706564339464, guid: a31291e7cd07cc34f9b29ec2a6ab7224, type: 3}
      propertyPath: m_LocalEulerAnglesHint.x
      value: 0
      objectReference: {fileID: 0}
    - target: {fileID: 8468582706564339464, guid: a31291e7cd07cc34f9b29ec2a6ab7224, type: 3}
      propertyPath: m_LocalEulerAnglesHint.y
      value: 0
      objectReference: {fileID: 0}
    - target: {fileID: 8468582706564339464, guid: a31291e7cd07cc34f9b29ec2a6ab7224, type: 3}
      propertyPath: m_LocalEulerAnglesHint.z
      value: 0
      objectReference: {fileID: 0}
    - target: {fileID: 8709965229930214236, guid: a31291e7cd07cc34f9b29ec2a6ab7224, type: 3}
      propertyPath: Spatialize
      value: 1
      objectReference: {fileID: 0}
    - target: {fileID: 8709965229930214236, guid: a31291e7cd07cc34f9b29ec2a6ab7224, type: 3}
      propertyPath: OutputAudioMixerGroup
      value: 
      objectReference: {fileID: 3526612193736648505, guid: c4ec596b04ef53f4581688939092e813, type: 2}
    - target: {fileID: 8709965229930214236, guid: a31291e7cd07cc34f9b29ec2a6ab7224, type: 3}
      propertyPath: panLevelCustomCurve.m_Curve.Array.data[0].value
      value: 1
      objectReference: {fileID: 0}
    m_RemovedComponents: []
  m_SourcePrefab: {fileID: 100100000, guid: a31291e7cd07cc34f9b29ec2a6ab7224, type: 3}
--- !u!1 &1824793668 stripped
GameObject:
  m_CorrespondingSourceObject: {fileID: 8372833645970865070, guid: a31291e7cd07cc34f9b29ec2a6ab7224, type: 3}
  m_PrefabInstance: {fileID: 1824793667}
  m_PrefabAsset: {fileID: 0}
--- !u!114 &1824793669
MonoBehaviour:
  m_ObjectHideFlags: 0
  m_CorrespondingSourceObject: {fileID: 0}
  m_PrefabInstance: {fileID: 0}
  m_PrefabAsset: {fileID: 0}
  m_GameObject: {fileID: 1824793668}
  m_Enabled: 1
  m_EditorHideFlags: 0
  m_Script: {fileID: 11500000, guid: 80f85af46f9bddd4ea78f11cee5e3b2e, type: 3}
  m_Name: 
  m_EditorClassIdentifier: 
  handType: 3
  proximityType: 3
  executionOrder: 0
  minimumScale: {x: 0.2, y: 0.2, z: 0.2}
  maximumScale: {x: 2, y: 2, z: 2}
  relativeToInitialState: 1
--- !u!1001 &1866417129
PrefabInstance:
  m_ObjectHideFlags: 0
  serializedVersion: 2
  m_Modification:
    m_TransformParent: {fileID: 0}
    m_Modifications:
    - target: {fileID: 2002339758, guid: 5be1d1dda43e3ed40b18f4eb09e144fa, type: 3}
      propertyPath: m_InteractionManager
      value: 
      objectReference: {fileID: 0}
    - target: {fileID: 2415827607033482817, guid: 5be1d1dda43e3ed40b18f4eb09e144fa, type: 3}
      propertyPath: m_RootOrder
      value: 5
      objectReference: {fileID: 0}
    - target: {fileID: 2415827607033482817, guid: 5be1d1dda43e3ed40b18f4eb09e144fa, type: 3}
      propertyPath: m_LocalPosition.x
      value: 0.1742
      objectReference: {fileID: 0}
    - target: {fileID: 2415827607033482817, guid: 5be1d1dda43e3ed40b18f4eb09e144fa, type: 3}
      propertyPath: m_LocalPosition.y
      value: 1.6
      objectReference: {fileID: 0}
    - target: {fileID: 2415827607033482817, guid: 5be1d1dda43e3ed40b18f4eb09e144fa, type: 3}
      propertyPath: m_LocalPosition.z
      value: 0.6383
      objectReference: {fileID: 0}
    - target: {fileID: 2415827607033482817, guid: 5be1d1dda43e3ed40b18f4eb09e144fa, type: 3}
      propertyPath: m_LocalRotation.w
      value: 0.7071068
      objectReference: {fileID: 0}
    - target: {fileID: 2415827607033482817, guid: 5be1d1dda43e3ed40b18f4eb09e144fa, type: 3}
      propertyPath: m_LocalRotation.x
      value: -0.7071068
      objectReference: {fileID: 0}
    - target: {fileID: 2415827607033482817, guid: 5be1d1dda43e3ed40b18f4eb09e144fa, type: 3}
      propertyPath: m_LocalRotation.y
      value: 0
      objectReference: {fileID: 0}
    - target: {fileID: 2415827607033482817, guid: 5be1d1dda43e3ed40b18f4eb09e144fa, type: 3}
      propertyPath: m_LocalRotation.z
      value: 0
      objectReference: {fileID: 0}
    - target: {fileID: 2415827607033482817, guid: 5be1d1dda43e3ed40b18f4eb09e144fa, type: 3}
      propertyPath: m_LocalEulerAnglesHint.x
      value: -90
      objectReference: {fileID: 0}
    - target: {fileID: 2415827607033482817, guid: 5be1d1dda43e3ed40b18f4eb09e144fa, type: 3}
      propertyPath: m_LocalEulerAnglesHint.y
      value: 0
      objectReference: {fileID: 0}
    - target: {fileID: 2415827607033482817, guid: 5be1d1dda43e3ed40b18f4eb09e144fa, type: 3}
      propertyPath: m_LocalEulerAnglesHint.z
      value: 0
      objectReference: {fileID: 0}
    - target: {fileID: 2741574062440155177, guid: 5be1d1dda43e3ed40b18f4eb09e144fa, type: 3}
      propertyPath: m_InteractionManager
      value: 
      objectReference: {fileID: 0}
    - target: {fileID: 3084243108605482235, guid: 5be1d1dda43e3ed40b18f4eb09e144fa, type: 3}
      propertyPath: m_Name
      value: Pen
      objectReference: {fileID: 0}
    m_RemovedComponents: []
  m_SourcePrefab: {fileID: 100100000, guid: 5be1d1dda43e3ed40b18f4eb09e144fa, type: 3}
